^C:\USERS\EGEOBOU\DOCUMENTS\VISUAL STUDIO 2013\PROJECTS\DIALOGTREE\DIALOGTREE\LOADDTREE.CPP|C:\USERS\EGEOBOU\DOCUMENTS\VISUAL STUDIO 2013\PROJECTS\DIALOGTREE\DIALOGTREE\MAIN.CPP
C:\USERS\EGEOBOU\DOCUMENTS\VISUAL STUDIO 2013\PROJECTS\DIALOGTREE\DIALOGTREE\DEBUG\VC120.PDB
C:\USERS\EGEOBOU\DOCUMENTS\VISUAL STUDIO 2013\PROJECTS\DIALOGTREE\DIALOGTREE\DEBUG\VC120.IDB
C:\USERS\EGEOBOU\DOCUMENTS\VISUAL STUDIO 2013\PROJECTS\DIALOGTREE\DIALOGTREE\DEBUG\MAIN.OBJ
C:\USERS\EGEOBOU\DOCUMENTS\VISUAL STUDIO 2013\PROJECTS\DIALOGTREE\DIALOGTREE\DEBUG\LOADDTREE.OBJ
^C:\USERS\EGEOBOU\DOCUMENTS\VISUAL STUDIO 2013\PROJECTS\DIALOGTREE\DIALOGTREE\LOADDTREE.CPP
C:\USERS\EGEOBOU\DOCUMENTS\VISUAL STUDIO 2013\PROJECTS\DIALOGTREE\DIALOGTREE\DEBUG\VC120.PDB
C:\USERS\EGEOBOU\DOCUMENTS\VISUAL STUDIO 2013\PROJECTS\DIALOGTREE\DIALOGTREE\DEBUG\VC120.IDB
C:\USERS\EGEOBOU\DOCUMENTS\VISUAL STUDIO 2013\PROJECTS\DIALOGTREE\DIALOGTREE\DEBUG\LOADDTREE.OBJ
^C:\USERS\EGEOBOU\DOCUMENTS\VISUAL STUDIO 2013\PROJECTS\DIALOGTREE\DIALOGTREE\MAIN.CPP
C:\USERS\EGEOBOU\DOCUMENTS\VISUAL STUDIO 2013\PROJECTS\DIALOGTREE\DIALOGTREE\DEBUG\VC120.PDB
C:\USERS\EGEOBOU\DOCUMENTS\VISUAL STUDIO 2013\PROJECTS\DIALOGTREE\DIALOGTREE\DEBUG\VC120.IDB
C:\USERS\EGEOBOU\DOCUMENTS\VISUAL STUDIO 2013\PROJECTS\DIALOGTREE\DIALOGTREE\DEBUG\MAIN.OBJ
^C:\USERS\EGEOBOU\DOCUMENTS\VISUAL STUDIO 2013\PROJECTS\DIALOGTREE\DIALOGTREE\MAIN.CPP|C:\USERS\EGEOBOU\DOCUMENTS\VISUAL STUDIO 2013\PROJECTS\DIALOGTREE\DIALOGTREE\OPTION.CPP
C:\USERS\EGEOBOU\DOCUMENTS\VISUAL STUDIO 2013\PROJECTS\DIALOGTREE\DIALOGTREE\DEBUG\VC120.PDB
C:\USERS\EGEOBOU\DOCUMENTS\VISUAL STUDIO 2013\PROJECTS\DIALOGTREE\DIALOGTREE\DEBUG\VC120.IDB
C:\USERS\EGEOBOU\DOCUMENTS\VISUAL STUDIO 2013\PROJECTS\DIALOGTREE\DIALOGTREE\DEBUG\MAIN.OBJ
C:\USERS\EGEOBOU\DOCUMENTS\VISUAL STUDIO 2013\PROJECTS\DIALOGTREE\DIALOGTREE\DEBUG\OPTION.OBJ
^C:\USERS\EGEOBOU\DOCUMENTS\VISUAL STUDIO 2013\PROJECTS\DIALOGTREE\DIALOGTREE\OPTION.CPP
C:\USERS\EGEOBOU\DOCUMENTS\VISUAL STUDIO 2013\PROJECTS\DIALOGTREE\DIALOGTREE\DEBUG\VC120.PDB
