^C:\USERS\EGEOBOU\DOCUMENTS\VISUAL STUDIO 2013\PROJECTS\DIALOGTREE\DIALOGTREE\DEBUG\LOADDTREE.OBJ|C:\USERS\EGEOBOU\DOCUMENTS\VISUAL STUDIO 2013\PROJECTS\DIALOGTREE\DIALOGTREE\DEBUG\MAIN.OBJ|C:\USERS\EGEOBOU\DOCUMENTS\VISUAL STUDIO 2013\PROJECTS\DIALOGTREE\DIALOGTREE\DEBUG\OPTION.OBJ
C:\USERS\EGEOBOU\DOCUMENTS\VISUAL STUDIO 2013\PROJECTS\DIALOGTREE\DEBUG\DIALOGTREE.ILK
C:\USERS\EGEOBOU\DOCUMENTS\VISUAL STUDIO 2013\PROJECTS\DIALOGTREE\DEBUG\DIALOGTREE.EXE
C:\USERS\EGEOBOU\DOCUMENTS\VISUAL STUDIO 2013\PROJECTS\DIALOGTREE\DEBUG\DIALOGTREE.PDB
